%YAML 1.1
%TAG !u! tag:unity3d.com,2011:
--- !u!74 &7400000
AnimationClip:
  m_ObjectHideFlags: 0
  m_CorrespondingSourceObject: {fileID: 0}
  m_PrefabInternal: {fileID: 0}
  m_Name: Run
  serializedVersion: 6
  m_Legacy: 0
  m_Compressed: 0
  m_UseHighQualityCurve: 1
  m_RotationCurves: []
  m_CompressedRotationCurves: []
  m_EulerCurves: []
  m_PositionCurves: []
  m_ScaleCurves: []
  m_FloatCurves: []
  m_PPtrCurves:
  - curve:
    - time: 0
      value: {fileID: 21300000, guid: df6c4f644bf57fc478be14c8c72a5e50, type: 3}
    - time: 0.06666667
      value: {fileID: 21300000, guid: 495752ed380b1ac4999e83e0eb260d61, type: 3}
    - time: 0.13333334
      value: {fileID: 21300000, guid: a197a0fbb5d491b45a14cf171ecbba06, type: 3}
    - time: 0.2
      value: {fileID: 21300000, guid: 19a39ceb4cee71846b016a7a73328793, type: 3}
    - time: 0.26666668
      value: {fileID: 21300000, guid: f5d54c694da07604ebe4eb3e46489752, type: 3}
    - time: 0.33333334
      value: {fileID: 21300000, guid: 0213ed9324e08084c82004780fad9193, type: 3}
    - time: 0.4
      value: {fileID: 21300000, guid: 63b50137818852945992a9af5858dcc8, type: 3}
    - time: 0.46666667
      value: {fileID: 21300000, guid: db0516fcd0aee3a4493b2f61bf281fcb, type: 3}
    attribute: m_Sprite
    path: 
    classID: 212
    script: {fileID: 0}
  m_SampleRate: 15
  m_WrapMode: 0
  m_Bounds:
    m_Center: {x: 0, y: 0, z: 0}
    m_Extent: {x: 0, y: 0, z: 0}
  m_ClipBindingConstant:
    genericBindings:
    - serializedVersion: 2
      path: 0
      attribute: 0
      script: {fileID: 0}
      typeID: 212
      customType: 23
      isPPtrCurve: 1
    pptrCurveMapping:
    - {fileID: 21300000, guid: df6c4f644bf57fc478be14c8c72a5e50, type: 3}
    - {fileID: 21300000, guid: 495752ed380b1ac4999e83e0eb260d61, type: 3}
    - {fileID: 21300000, guid: a197a0fbb5d491b45a14cf171ecbba06, type: 3}
    - {fileID: 21300000, guid: 19a39ceb4cee71846b016a7a73328793, type: 3}
    - {fileID: 21300000, guid: f5d54c694da07604ebe4eb3e46489752, type: 3}
    - {fileID: 21300000, guid: 0213ed9324e08084c82004780fad9193, type: 3}
    - {fileID: 21300000, guid: 63b50137818852945992a9af5858dcc8, type: 3}
    - {fileID: 21300000, guid: db0516fcd0aee3a4493b2f61bf281fcb, type: 3}
  m_AnimationClipSettings:
    serializedVersion: 2
    m_AdditiveReferencePoseClip: {fileID: 0}
    m_AdditiveReferencePoseTime: 0
    m_StartTime: 0
    m_StopTime: 0.53333336
    m_OrientationOffsetY: 0
    m_Level: 0
    m_CycleOffset: 0
    m_HasAdditiveReferencePose: 0
    m_LoopTime: 1
    m_LoopBlend: 0
    m_LoopBlendOrientation: 0
    m_LoopBlendPositionY: 0
    m_LoopBlendPositionXZ: 0
    m_KeepOriginalOrientation: 0
    m_KeepOriginalPositionY: 1
    m_KeepOriginalPositionXZ: 0
    m_HeightFromFeet: 0
    m_Mirror: 0
  m_EditorCurves: []
  m_EulerEditorCurves: []
  m_HasGenericRootTransform: 0
  m_HasMotionFloatCurves: 0
  m_GenerateMotionCurves: 0
  m_Events: []
